"other/af",
"europe/an",
"europe/bg",
"europe/bs",
"europe/ca",
"europe/cs",
"europe/cy",
"europe/da",
"de",
"europe/el",
"default",
"en",
"other/en-sc",
"other/en-n",
"other/en-rp",
"other/en-wm",
"en-us",
"other/en-wi",
"other/eo",
"europe/es",
"es-la",
"europe/et",
"asia/fa",
"asia/fa-pin",
"europe/fi",
"europe/fr-be",
"fr",
"europe/ga",
"other/grc",
"asia/hi",
"europe/hr",
"europe/hu",
"asia/hy",
"asia/hy-west",
"asia/id",
"europe/is",
"europe/it",
"other/jbo",
"asia/ka",
"asia/kn",
"asia/ku",
"other/la",
"other/lfn",
"europe/lt",
"europe/lv",
"europe/mk",
"asia/ml",
"asia/ms",
"asia/ne",
"europe/nl",
"europe/no",
"asia/pa",
"europe/pl",
"pt",
"europe/pt-pt",
"europe/ro",
"europe/ru",
"europe/sk",
"europe/sq",
"europe/sr",
"europe/sv",
"other/sw",
"asia/ta",
"asia/tr",
"asia/vi",
"asia/vi-hue",
"asia/vi-sgn",
"asia/zh",
"asia/zh-yue",
